README
Olivier Renard
2006-06-29


DESCRIPTION
    Enable the creation and handling of multilingual texts and data via a web
    front end.


HISTORY
    -   2006-06-29: Created project (originally created 2003-07-24).


------------------------------------ END -------------------------------------
