title
    en
        Gift wrap
line
    de
        Geschenkpapier
    en
        Gift wrap
    fr
        Papier cadeau
line
    de
        Chlorfrei gebleicht
    en
        Bleached chlorine-free
    fr
        Blanchi sans chlore

~~~~~~~~~~~~~~~~~~~~~~~~~~~~~~~~~~~~~~~~~~~~~~~~~~~~~~~~~~~~~~~~~~~~~~~~~~~~~~
                               END OF DOCUMENT
~~~~~~~~~~~~~~~~~~~~~~~~~~~~~~~~~~~~~~~~~~~~~~~~~~~~~~~~~~~~~~~~~~~~~~~~~~~~~~
